{
	"info": {
		"_postman_id": "56258a91-d62a-41db-99b8-1a8e4290e8ad",
		"name": "Solvers",
		"description": "These are the 3 endpoints that have been created\nGET /           -> default endpoint\nGET /allPosts   -> gets all posts\nPOST /upload    -> uploads a new post",
		"schema": "https://schema.getpostman.com/json/collection/v2.1.0/collection.json"
	},
	"item": [
		{
			"name": "default",
			"request": {
				"method": "GET",
				"header": [],
				"url": {
					"raw": "http://localhost:8080/",
					"protocol": "http",
					"host": [
						"localhost"
					],
					"port": "8080",
					"path": [
						""
					]
				}
			},
			"response": []
		},
		{
			"name": "allPosts",
			"request": {
				"method": "GET",
				"header": [],
				"url": {
					"raw": "http://localhost:8080/allPosts",
					"protocol": "http",
					"host": [
						"localhost"
					],
					"port": "8080",
					"path": [
						"allPosts"
					]
				}
			},
			"response": []
		},
		{
			"name": "upload",
			"request": {
				"method": "POST",
				"header": [],
				"body": {
					"mode": "formdata",
					"formdata": [
						{
							"key": "description",
							"value": "test",
							"type": "text"
						},
						{
							"key": "link",
							"value": "dtest",
							"type": "text"
						},
						{
							"key": "file",
							"type": "file",
							"src": []
						}
					]
				},
				"url": {
					"raw": "http://localhost:8080/upload",
					"protocol": "http",
					"host": [
						"localhost"
					],
					"port": "8080",
					"path": [
						"upload"
					]
				}
			},
			"response": []
		}
	],
	"protocolProfileBehavior": {}
}